Get cup results — get_cup_results • biathlonResults
…
    Arguments

    cup_id
Character. Cup identifier.
Find it by calling get_cups().

    Value

A data.frame. Listing the standings for the queried cup.

    Examples

get_cup_results("BT2122SWRLCP__SWTS")
#> # A tibble: 106 × 20
#>    Rank  Bibs         ResultOr…¹ IBUId Name  Short…² Famil…³ Given…⁴ Nat   Score
#>    <chr> <list>            <int> <chr> <chr> <chr>   <chr>   <chr>   <chr> <chr>
#>  1 1     <named list>          1 BTNO… ROEI… ROEISE… ROEISE… Marte … NOR   957  
#>  2 2     <named list>          2 BTSW… OEBE… OEBERG… OEBERG  Elvira  SWE   823  
#>  3 3     <NULL>                3 BTAU… HAUS… HAUSER… HAUSER  Lisa T… AUT   684  
#>  4 4     <NULL>                4 BTSW… OEBE… OEBERG… OEBERG  Hanna   SWE   661  
#>  5 5     <NULL>                5 BTFR… CHEV… CHEVAL… CHEVAL… Anais   FRA   642  
#>  6 6     <NULL>                6 BTGE… HERR… HERRMA… HERRMA… Denise  GER   589  
#>  7 7     <NULL>                7 BTBL… ALIM… ALIMBE… ALIMBE… Dzinara BLR   589  
#>  8 8     <NULL>                8 BTFR… BRAI… BRAISA… BRAISA… Justine FRA   581  
#>  9 9     <NULL>                9 BTIT… WIER… WIERER… WIERER  Doroth… ITA   577  
#> 10 10    <NULL>               10 BTCZ… DAVI… DAVIDO… DAVIDO… Marketa CZE   560  
#> # … with 96 more rows, 10 more variables: Scrachable <chr>, Groups <chr>,
#> #   Cup.CupId <chr>, Cup.CupName <chr>, Cup.CupShortName <chr>,
#> #   Cup.CupInfo <chr>, Cup.AsOf <chr>, Cup.RaceCount <int>,
#> #   Cup.TotalRaces <int>, Cup.MaxPossiblePoints <int>, and abbreviated variable
#> #   names ¹​ResultOrder, ²​ShortName, ³​FamilyName, ⁴​GivenName
…
